Prova 1
…
15- Faça as análises estatísticas que julgar necessárias para verificar qual é o melhor tratamento. Faça um texto com as suas análises passo a passo e escreva sua conclusão como o faria para submeter um artigo para publicação. ESCREVA UM PARÁGRAFO DE ANÁLISE ESTATÍSTICA (Como na seção de métodos de um artigo) ONDE DEVEM SER APRESENTADAS - Qual a pergunta de pesquisa, VD e VI, Hipótese Nula e Alternativa e os testes estatísticos adotados e seus pré-requisitos caso seja necessário. ALÉM DISSO ESCREVA OUTRO PARÁGRAFO COM A ANÁLISE DOS DADOS - Resultados, notação dos testes, onde estão as diferenças entre os grupos/medidas e tamanhos do efeito. Utilize esse exercício como um treino para escrever seus próprios resultados daqui pra frente! Utilize o banco de dados apresentado no link acima. Fique a vontade para adicionar mais variáveis caso ache necessário

Código
hipertensao

# A tibble: 54 × 3
   paciente droga   pressao_arterial
   <chr>    <chr>              <dbl>
 1 P1       droga_a              187
 2 P1       droga_b              189
 3 P1       droga_c              180
 4 P2       droga_a              182
 5 P2       droga_b              191
 6 P2       droga_c              185
 7 P3       droga_a              191
 8 P3       droga_b              193
 9 P3       droga_c              173
10 P4       droga_a              174
# ℹ 44 more rows
…
